Sentiment Lexicon Translation
…
n_distinct(bin_positive_tranlated) # distinct words translated

[1] 2005

Let us re-arrange the above dataframe and rename X1

bin_positive_tranlated <-  bin_positive_tranlated %>%  
            relocate(text, .after = X1) %>% 
            rename(Seria_num = "X1")

bin_positive_tranlated

# A tibble: 2,005 x 3
   Seria_num text        translatedText
       <dbl> <chr>       <chr>         
 1         1 abound      yawaita       
 2         2 abounds     yawaita       
 3         3 abundance   yawa          
 4         4 abundant    mai yawa      
 5         5 accessable  m             
 6         6 accessible  m             
 7         7 acclaim     yabo          
 8         8 acclaimed   yabo          
 9         9 acclamation sanarwa       
10        10 accolade    yabo          
# … with 1,995 more rows

After some few observations, we found out some lexicons are not translated to Hausa from English. Also, some words appeared to have repeated translation with m. Lets explore the non-translated and those with repeated m as their translation:

bin_positive_tranlated <- bin_positive_tranlated %>% 
   mutate(non_translated =  if_else(translatedText == text, bin_positive_tranlated$text, " ")) %>% 
   mutate(repeated_m = if_else(translatedText == "m", "m", " "))
       
bin_positive_tranlated

# A tibble: 2,005 x 5
   Seria_num text        translatedText non_translated repeated_m
       <dbl> <chr>       <chr>          <chr>          <chr>     
 1         1 abound      yawaita        " "            " "       
 2         2 abounds     yawaita        " "            " "       
 3         3 abundance   yawa           " "            " "       
 4         4 abundant    mai yawa       " "            " "       
 5         5 accessable  m              " "            "m"       
 6         6 accessible  m              " "            "m"       
 7         7 acclaim     yabo           " "            " "       
 8         8 acclaimed   yabo           " "            " "       
 9         9 acclamation sanarwa        " "            " "       
10        10 accolade    yabo           " "            " "       
# … with 1,995 more rows
How many words are not translated

sum(bin_positive_tranlated$non_translated != " ")

[1] 184

What are the words that are not translate?

non_translated_words <- bin_positive_tranlated %>% 
                  select(non_translated)  %>% 
                  filter( non_translated != " " )
          
non_translated_words

# A tibble: 184 x 1
   non_translated
   <chr>         
 1 acumen        
 2 admiringly    
 3 adroit        
 4 adroitly      
 5 agile         
 6 agilely       
 7 alluring      
 8 alluringly    
 9 ameliorate    
10 amiability    
# … with 174 more rows
How many words are translated as “m”

sum(bin_positive_tranlated$repeated_m != " ")

[1] 84

What are the words translated as “m”

translated_as_m <- bin_positive_tranlated %>% 
                  select(repeated_m, translatedText, text) %>% 
                  filter(repeated_m == "m")
          
translated_as_m

# A tibble: 84 x 3
   repeated_m translatedText text        
   <chr>      <chr>          <chr>       
 1 m          m              accessable  
 2 m          m              accessible  
 3 m          m              affectionate
 4 m          m              affirmative 
 5 m          m              agreeable   
 6 m          m              ambitious   
 7 m          m              amusing     
 8 m          m              ardent      
 9 m          m              attentive   
10 m          m              attractive  
# … with 74 more rows
…
We have a total of `4781 negative words from the lexicon.Re-arranging :

bin_negative_tranlated <-  bin_negative_tranlated %>%  
            relocate(text, .after = X1) %>% 
            rename(Seria_num = "X1")

bin_negative_tranlated

# A tibble: 4,781 x 3
   Seria_num text        translatedText
       <dbl> <chr>       <chr>         
 1         1 2-faces     2-fuskoki     
 2         2 abnormal    mahaukaci     
 3         3 abolish     warware       
 4         4 abominable  abin ƙyama    
 5         5 abominably  abin qazanta  
 6         6 abominate   ƙazanta       
 7         7 abomination abin ƙyama    
 8         8 abort       zubar da ciki 
 9         9 aborted     zubar da ciki 
10        10 aborts      zubar da ciki 
# … with 4,771 more rows

finding non-translated and those translated as m

bin_negative_tranlated <- bin_negative_tranlated %>% 
        mutate(non_translated =  if_else(translatedText == text, bin_negative_tranlated$text, " ")) %>% 
        mutate(repeated_m = if_else(translatedText == "m", "m", " "))
bin_negative_tranlated

# A tibble: 4,781 x 5
   Seria_num text        translatedText non_translated repeated_m
       <dbl> <chr>       <chr>          <chr>          <chr>     
 1         1 2-faces     2-fuskoki      " "            " "       
 2         2 abnormal    mahaukaci      " "            " "       
 3         3 abolish     warware        " "            " "       
 4         4 abominable  abin ƙyama     " "            " "       
 5         5 abominably  abin qazanta   " "            " "       
 6         6 abominate   ƙazanta        " "            " "       
 7         7 abomination abin ƙyama     " "            " "       
 8         8 abort       zubar da ciki  " "            " "       
 9         9 aborted     zubar da ciki  " "            " "       
10        10 aborts      zubar da ciki  " "            " "       
# … with 4,771 more rows
How many negative words are not translated

sum(bin_negative_tranlated$non_translated != " ")

[1] 670

What are the words that are not translate?

neg_non_translated <- bin_negative_tranlated %>% 
                  select(non_translated)  %>% 
                  filter(non_translated != " " )
          
neg_non_translated

# A tibble: 670 x 1
   non_translated
   <chr>         
 1 abysmal       
 2 abysmally     
 3 acerbate      
 4 acerbic       
 5 acerbically   
 6 acrid         
 7 acridly       
 8 acridness     
 9 acrimonious   
10 acrimony      
# … with 660 more rows
How many negative words are translated as “m”

sum(bin_negative_tranlated$repeated_m != " ")

[1] 148

What are the words translated as “m”

neg_translated_as_m <- bin_negative_tranlated %>% 
                  select(repeated_m, translatedText, text) %>% 
                  filter(repeated_m == "m")
          
neg_translated_as_m

# A tibble: 148 x 3
   repeated_m translatedText text       
   <chr>      <chr>          <chr>      
 1 m          m              abusive    
 2 m          m              adamant    
 3 m          m              aggressive 
 4 m          m              annoyed    
 5 m          m              annoying   
 6 m          m              appalling  
 7 m          m              audacious  
 8 m          m              awkward    
 9 m          m              baffling   
10 m          m              bewildering
# … with 138 more rows
…
